{
    "m_SelectedDeviceId": "OUKITELK13Pro004758",
    "m_SelectedPackage": {
        "deviceId": "OUKITELK13Pro004758",
        "name": "com.DefaultCompany.EndlessRunner",
        "processId": 12758,
        "exited": false
    },
    "m_SelectedPriority": 0,
    "m_KnownPackagesForSerialization": [
        {
            "deviceId": "OUKITELK13Pro004758",
            "name": "com.DefaultCompany.EndlessRunner",
            "processId": 7228,
            "exited": true
        },
        {
            "deviceId": "OUKITELK13Pro004758",
            "name": "com.DefaultCompany.EndlessRunner",
            "processId": 10134,
            "exited": true
        },
        {
            "deviceId": "OUKITELK13Pro004758",
            "name": "com.DefaultCompany.EndlessRunner",
            "processId": 13651,
            "exited": true
        },
        {
            "deviceId": "OUKITELK13Pro004758",
            "name": "com.DefaultCompany.EndlessRunner",
            "processId": 26764,
            "exited": true
        },
        {
            "deviceId": "OUKITELK13Pro004758",
            "name": "com.DefaultCompany.EndlessRunner",
            "processId": 28158,
            "exited": true
        },
        {
            "deviceId": "OUKITELK13Pro004758",
            "name": "com.DefaultCompany.EndlessRunner",
            "processId": 28967,
            "exited": true
        },
        {
            "deviceId": "OUKITELK13Pro004758",
            "name": "com.DefaultCompany.EndlessRunner",
            "processId": 30063,
            "exited": false
        },
        {
            "deviceId": "OUKITELK13Pro004758",
            "name": "com.DefaultCompany.EndlessRunner",
            "processId": 30988,
            "exited": true
        },
        {
            "deviceId": "OUKITELK13Pro004758",
            "name": "com.DefaultCompany.EndlessRunner",
            "processId": 31624,
            "exited": false
        },
        {
            "deviceId": "OUKITELK13Pro004758",
            "name": "com.DefaultCompany.EndlessRunner",
            "processId": 6921,
            "exited": false
        },
        {
            "deviceId": "OUKITELK13Pro004758",
            "name": "com.DefaultCompany.EndlessRunner",
            "processId": 7480,
            "exited": false
        },
        {
            "deviceId": "OUKITELK13Pro004758",
            "name": "com.DefaultCompany.EndlessRunner",
            "processId": 8104,
            "exited": true
        },
        {
            "deviceId": "OUKITELK13Pro004758",
            "name": "com.DefaultCompany.EndlessRunner",
            "processId": 10159,
            "exited": true
        },
        {
            "deviceId": "OUKITELK13Pro004758",
            "name": "com.DefaultCompany.EndlessRunner",
            "processId": 11622,
            "exited": false
        },
        {
            "deviceId": "OUKITELK13Pro004758",
            "name": "com.DefaultCompany.EndlessRunner",
            "processId": 12758,
            "exited": false
        }
    ],
    "m_Tags": {
        "m_Entries": [
            {
                "m_Name": "Filter by all listed tags",
                "m_Selected": false
            },
            {
                "m_Name": "No Filter",
                "m_Selected": true
            },
            {
                "m_Name": "",
                "m_Selected": false
            },
            {
                "m_Name": "Tag Control...",
                "m_Selected": false
            },
            {
                "m_Name": "",
                "m_Selected": false
            },
            {
                "m_Name": "Unity",
                "m_Selected": false
            },
            {
                "m_Name": "CRASH",
                "m_Selected": false
            }
        ]
    },
    "m_MemoryViewerState": {
        "MemoryWindowHeight": 300.0,
        "MemoryWindowWidth": 170.0,
        "MemoryTypeEnabled": [
            true,
            true,
            true,
            true,
            true,
            true,
            true,
            true,
            true,
            true
        ],
        "MemoryGroup": 1,
        "Behavior": 1
    },
    "m_Filter": "",
    "m_FilterIsRegularExpression": false,
    "m_SymbolPaths": []
}